{
    "status": [
      {
        "idStatus": 1,
        "nameStatus": "Hoàn thành",
        "description": "Trạng thái này được sử dụng khi bạn đã hoàn thành phần công việc",
        "isDefault":"true"
      },
      {
        "idStatus": 2,
        "nameStatus": "Chưa hoàn thành",
        "description": "Trạng thái này được sử dụng khi bạn chưa hoàn thành phần công việc ",
        "isDefault":"true"
      },
      {
        "idStatus": 3,
        "nameStatus": "Đang tiến hành",
        "description": "Trạng thái này được sử dụng khi bạn đang tiến hành phần công việc nhưng chưa hoàn thành ",
        "isDefault":"false"
      },
      {
        "idStatus": 4,
        "nameStatus": "40%",
        "description": "Trạng thái này được sử dụng khi bạn đang tiến hành phần công việc nhưng chưa hoàn thành ",
        "isDefault":"false"
      },
      {
        "idStatus": 5,
        "nameStatus": "50%",
        "description": "Trạng thái này được sử dụng khi bạn đang tiến hành phần công việc nhưng chưa hoàn thành ",
        "isDefault":"false"
      },
      {
        "idStatus": 6,
        "nameStatus": "40%",
        "description": "Trạng thái này được sử dụng khi bạn đang tiến hành phần công việc nhưng chưa hoàn thành ",
        "isDefault":"false"
      }
    ]
  }
